…
  Ivan V. Kulakovskiy; Ilya E. Vorontsov; Ivan S. Yevshin; Ruslan N.
  Sharipov; Alla D. Fedorova; Eugene I. Rumynskiy; Yulia A. Medvedeva;
  Arturo Magana-Mora; Vladimir B. Bajic; Dmitry A. Papatsenko; Fedor A.
  Kolpakov; Vsevolod J. Makeev: HOCOMOCO: towards a complete collection
  of transcription factor binding models for human and mouse via
  large-scale ChIP-Seq analysis. Nucl. Acids Res., Database issue,
  gkx1106 (11 November 2017).
  [doi:10.1093/nar/gkx1106](https://doi.org/10.1093/nar/gkx1106)

## Examples

``` r
all_motif_datasets()
#> # A tibble: 49,269 × 8
#>    motif        pos     A     C     G     T dataset motif_orig
#>    <chr>      <dbl> <dbl> <dbl> <dbl> <dbl> <chr>   <chr>     
#>  1 HOMER.AP_1     0 0.419 0.275 0.277 0.028 HOMER   AP_1      
#>  2 HOMER.AP_1     1 0.001 0.001 0.001 0.997 HOMER   AP_1      
#>  3 HOMER.AP_1     2 0.01  0.002 0.965 0.023 HOMER   AP_1      
#>  4 HOMER.AP_1     3 0.984 0.003 0.001 0.012 HOMER   AP_1      
#>  5 HOMER.AP_1     4 0.062 0.579 0.305 0.054 HOMER   AP_1      
#>  6 HOMER.AP_1     5 0.026 0.001 0.001 0.972 HOMER   AP_1      
#>  7 HOMER.AP_1     6 0.043 0.943 0.001 0.012 HOMER   AP_1      
#>  8 HOMER.AP_1     7 0.98  0.005 0.001 0.014 HOMER   AP_1      
#>  9 HOMER.AP_1     8 0.05  0.172 0.307 0.471 HOMER   AP_1      
#> 10 HOMER.AP_1     9 0.149 0.444 0.211 0.195 HOMER   AP_1      
#> # ℹ 49,259 more rows
```
