Screen for motifs in a database given a response variable — screen_pwm • prego
…
# only best match
screen_pwm(cluster_sequences_example, cluster_mat_example[, 1])
#> ℹ Performing PWM screening
#> # A tibble: 3,110 x 2
#>                   motif     score
#> 1          JASPAR.HNF1A 0.8510730
#> 2   JOLMA.HNF1A_di_full 0.8505374
#> 3 JOLMA.HNF1B_di_full_1 0.8484232
#> 4 JOLMA.HNF1B_di_full_2 0.8484090
#> 5          JASPAR.HNF1B 0.8479834
#> 6            HOMER.Hnf1 0.8127850
#> # ... with 3,104 more rows
…
